[
  {
    "model": "ChannelMetadata",
    "data": {
      "artist": "Odessa",
      "title": "Toronto Song",
      "filename": "Odessa - Toronto Song.mp3",
      "startTime": "2015-01-08T01:31:12.381Z",
      "Channel": {"name": "Main"}
    }
  },
  {
    "model": "ChannelMetadata",
    "data": {
      "artist": "One Hundred Owls",
      "title": "Incessant Need to Write Alone (and without chatter)",
      "filename": "OneHundredOwls-IncessantNeed.mp3",
      "startTime": "2015-01-08T01:31:12.381Z",
      "endTime": "2015-01-08T01:25:00.123Z",
      "Channel": {"name": "Main"}
    }
  },
  {
    "model": "ChannelMetadata",
    "data": {
      "artist": "Joe Yoga",
      "title": "Mad Scribbler",
      "filename": "Joe Yoga - Mac Scribbler.flac",
      "startTime": "2015-01-08T00:31:12.381Z",
      "Channel": {"name": "Indie"}
    }
  }
]